0.0551037885232 -0.0395131958768 0.338250753402
0.0601224685239 -0.0166540193402 0.343831223678
0.0616740201606 -0.0168098985733 0.355040277084
0.0601220762927 0.0166579892443 0.343831226319
0.0616738922563 0.0168114197655 0.355040269726
0.0550882658594 0.0395102796835 0.338250771442
0.0568846376219 -0.039428497324 0.353451238772
0.0621207126758 -3.21429503941e-08 0.353451217006
0.0607661863006 1.04289479372e-06 0.342215578466
0.0568932961553 0.0394350529842 0.353451209688
0.0592065513145 -0.0395579385522 0.372821222266
0.0639993348258 -8.58874385574e-09 0.372821225563
0.0592154310745 0.039564246208 0.372821219417
0.0633713273899 -0.0199215867585 0.37685277174
0.0633456878145 0.0202848554987 0.376852762931
0.0602342773097 -0.040336294212 0.396211222343
0.0635700024315 -0.0199330100961 0.396211224048
0.0638498750873 -0.0166780231679 0.413188223642
0.0635747705294 0.019937404203 0.396211226244
0.0638495529423 0.0166819594978 0.413188219591
0.0602191476729 0.0403333702496 0.396211227825
0.0599152242248 -0.0393751272134 0.411561239559
0.0644999955927 -3.52182318305e-08 0.411561218159
0.0644999966345 -6.50350415756e-08 0.400244217791
0.0599241803727 0.0393813421441 0.411561201552
